%YAML 1.1
%TAG !u! tag:unity3d.com,2011:
--- !u!1045 &1
EditorBuildSettings:
  m_ObjectHideFlags: 0
  serializedVersion: 2
  m_Scenes:
  - enabled: 1
    path: Assets/Scene/StartUp.unity
    guid: 0448ff0f0624f314f93a3f6af11cbb83
  - enabled: 1
    path: Assets/Scene/MainMenu.unity
    guid: 7849a8df0df2d534da0f0dbcb2aedce5
  - enabled: 1
    path: Assets/Scene/SettingsScene.unity
    guid: 6eb4fbda38709504b9006b086721df4e
  - enabled: 1
    path: Assets/Scene/LevelSelectionScene.unity
    guid: 547cc368734c92d49b7f4db4694d4467
  - enabled: 1
    path: Assets/Scene/Level1.unity
    guid: 439155e54d36b6b4b8b2569643d715ea
  - enabled: 1
    path: Assets/Scene/Level2.unity
    guid: 4cd30b3ce71f50f42991ee8fe0c692cc
  - enabled: 0
    path: Assets/Scene/Level3.unity
    guid: f4d360042f791644e9e0d16451a432e0
